<svg width="50" height="50" viewBox="0 0 50 50" fill="none" xmlns="http://www.w3.org/2000/svg">
<circle cx="25" cy="25" r="25" transform="rotate(-180 25 25)" fill="#FFE6E2"/>
<mask id="mask0" mask-type="alpha" maskUnits="userSpaceOnUse" x="0" y="0" width="50" height="50">
<circle cx="25" cy="25" r="25" transform="rotate(-180 25 25)" fill="#FFECEA"/>
</mask>
<g mask="url(#mask0)">
<mask id="mask1" mask-type="alpha" maskUnits="userSpaceOnUse" x="0" y="0" width="50" height="50">
<circle cx="25" cy="25" r="25" transform="rotate(-180 25 25)" fill="url(#paint0_linear)"/>
</mask>
<g mask="url(#mask1)">
<path d="M51.3409 15.425C49.4353 12.8325 46.8461 10.8697 43.7464 9.66717C42.0982 9.02779 40.3759 8.59299 38.6341 8.31842C36.7129 8.01545 34.758 7.92678 32.818 8.06057C29.2486 8.30714 25.6444 9.70334 23.2312 12.4327C22.4705 13.293 21.9233 14.2108 21.5066 15.1757C20.7517 16.9235 20.2739 18.9645 20.2499 20.878C20.2166 23.521 19.7851 25.9307 18.4161 28.1981C16.9859 30.5666 16.68 33.5133 17.314 36.1918C17.7314 37.9551 18.5849 39.5952 19.8073 40.9171C21.334 42.5684 23.2408 43.8503 25.3293 44.637C26.5181 45.0847 27.7523 45.4067 29.0045 45.6058C31.6537 46.0278 34.307 46.0694 36.9714 45.9243C38.8251 45.8232 40.6818 45.6124 42.4824 45.1399C46.1786 44.1699 49.4487 42.1659 51.6472 38.9161C56.1927 32.1977 56.1412 21.9568 51.3409 15.425Z" fill="#D87A6D"/>
<path d="M51.358 15.4253C49.4612 12.8324 46.884 10.8699 43.7983 9.66663C42.1581 9.02764 40.4434 8.59322 38.7093 8.31787C36.9 8.03124 35.0595 7.93673 33.2307 8.04135C34.0932 8.08997 34.953 8.18253 35.806 8.31787C37.5397 8.59322 39.2533 9.02764 40.8946 9.66663C43.9792 10.8699 46.5568 12.8324 48.4532 15.4253C53.2319 21.9568 53.2825 32.1973 48.7591 38.9158C46.5697 42.1656 43.3148 44.1701 39.6357 45.1396C37.8434 45.6126 35.9953 45.823 34.1506 45.9245C33.7671 45.9451 33.3835 45.963 33 45.975C34.3498 46.0236 35.7003 45.9984 37.0551 45.9245C38.9001 45.823 40.7482 45.6126 42.5405 45.1396C46.2192 44.1701 49.4741 42.1656 51.6628 38.9158C56.1873 32.1973 56.1356 21.9568 51.358 15.4253Z" fill="#C66658"/>
<path d="M21.48 14.9921C20.7295 16.7011 20.2546 18.6968 20.2307 20.5679C20.1976 23.1523 19.7687 25.5086 18.4077 27.7257C16.986 30.0417 16.6819 32.9231 17.3121 35.5422C17.727 37.2664 18.5755 38.8701 19.7907 40.1627C21.3084 41.7774 23.2039 43.0309 25.2801 43.8002C26.4619 44.2379 27.6888 44.5524 28.9336 44.7475C30.8113 45.0418 32.258 45.0909 34.1353 44.8308C37.9946 44.2961 42.2058 42.2623 44.6274 39.1257C46.9985 36.0544 47.8857 32.0386 47.9909 28.2246C48.079 25.0131 47.5243 21.7856 46.5103 18.7432C44.4285 12.4985 40.0764 7.53532 32.7246 8.03464C29.1758 8.27575 25.5933 9.64099 23.1944 12.3099C22.4382 13.1511 21.8942 14.0482 21.48 14.9921Z" fill="#FFC1B8"/>
<path d="M47.9907 28.2247C47.8829 32.0382 46.9778 36.054 44.555 39.1248C42.0817 42.2626 37.7793 44.296 33.8379 44.8303C32.438 45.0212 31.2723 45.0459 30 44.9303C30.2823 44.9044 30.5735 44.8713 30.8744 44.8303C34.8166 44.296 39.1183 42.2626 41.5927 39.1248C44.0144 36.054 44.921 32.0382 45.0277 28.2247C45.1188 25.0128 44.5519 21.7857 43.5157 18.7427C41.6346 13.2186 37.9383 8.69743 31.9094 8.07452C32.0723 8.05817 32.2336 8.04524 32.3961 8.03459C39.9062 7.53566 44.3518 12.4988 46.478 18.7427C47.5137 21.7857 48.0807 25.0128 47.9907 28.2247Z" fill="#FFB3A8"/>
<path d="M24.15 17.0336C23.5987 18.1509 23.2046 19.3668 22.9948 20.6313C22.5225 23.4785 22.8286 25.5101 21.2774 28.0694C18.359 32.8845 20.723 38.6295 25.5153 40.8489C28.9537 42.4415 32.8697 42.2116 36.3784 41.1884C45.1483 38.6302 46.3035 28.695 43.916 20.5907C42.3198 15.1739 38.5376 10.8793 32.9211 11.0026C29.0406 11.0876 25.8494 13.5926 24.15 17.0336Z" fill="#FFA295"/>
<path d="M36.0864 41.1882C33.8138 41.8289 31.3776 42.159 29 41.9245C30.3248 41.8043 31.6378 41.544 32.8997 41.1882C41.9664 38.6301 43.161 28.6944 40.6924 20.5907C39.227 15.7754 35.9723 11.8478 31.187 11.1221C31.6187 11.0523 32.0617 11.0124 32.5133 11.0026C38.3191 10.88 42.2297 15.1745 43.8791 20.5907C46.3477 28.6948 45.1535 38.6301 36.0864 41.1882Z" fill="#FA9385"/>
<path d="M36.1521 26.7748C38.7984 29.4819 43.1509 27.3278 42.996 23.9605C42.9033 21.9465 41.6717 19.5678 40.3668 17.967C39.3124 16.6733 37.9449 15.55 36.3355 14.8759C34.7103 14.195 32.4386 13.4529 30.8199 14.5851C29.7254 15.3505 29.8539 16.7188 30.4652 17.7192C31.1754 18.8811 32.7092 19.0839 33.5437 20.1437C35.088 22.1041 34.3793 24.9613 36.1521 26.7748Z" fill="#FFC1B8"/>
<path d="M40.4975 28C41.0116 27.3182 41.3127 26.4658 41.2694 25.5202C41.1757 23.4599 39.9311 21.027 38.6116 19.3898C37.5452 18.0666 36.1632 16.9174 34.5359 16.2283C33.2188 15.6696 31.4801 15.0706 30 15.4538C30.1291 15.13 30.3511 14.8362 30.6869 14.5984C32.3232 13.44 34.6197 14.1998 36.2624 14.8966C37.8897 15.5857 39.2717 16.7346 40.3381 18.0571C41.6575 19.695 42.9022 22.1271 42.9959 24.1875C43.0762 25.9499 41.963 27.3878 40.4975 28Z" fill="#FFB3A8"/>
</g>
<path d="M40.1483 20.6207C38.1424 17.96 35.417 15.9455 32.1541 14.7109C30.4191 14.0547 28.6062 13.6089 26.7727 13.3267C24.7504 13.0157 22.6926 12.9247 20.6506 13.0624C16.8932 13.3151 13.0993 14.748 10.5592 17.5492C9.75844 18.4321 9.1824 19.3741 8.74384 20.3644C7.94912 22.1582 7.44624 24.2533 7.42092 26.2167C7.38554 28.9293 6.9317 31.4028 5.4906 33.7298C3.98517 36.1606 3.66319 39.1846 4.33048 41.9335C4.76984 43.7436 5.66827 45.4268 6.95502 46.7835C8.56214 48.4779 10.5692 49.7935 12.7677 50.601C14.0191 51.0608 15.3179 51.3909 16.6364 51.5956C19.4249 52.0283 22.2179 52.0714 25.0225 51.9221C26.9737 51.8188 28.9282 51.6024 30.8235 51.1175C34.7143 50.122 38.1565 48.0652 40.4707 44.7295C45.2555 37.8343 45.2012 27.3239 40.1483 20.6207Z" fill="#D87A6D"/>
<path d="M40.1924 20.6211C38.2094 17.9599 35.515 15.9458 32.2889 14.7108C30.5741 14.0546 28.7815 13.6092 26.9689 13.3266C25.0773 13.0324 23.1527 12.935 21.2408 13.0424C22.1425 13.0923 23.0414 13.1873 23.9332 13.3266C25.7457 13.6092 27.5376 14.0546 29.2536 14.7108C32.4785 15.9458 35.1728 17.9599 37.1555 20.6211C42.1516 27.324 42.2044 37.834 37.4754 44.7298C35.1863 48.0651 31.7834 50.1219 27.937 51.1174C26.0633 51.6024 24.1311 51.8183 22.2025 51.9225C21.8016 51.944 21.4006 51.962 21 51.9744C22.4108 52.0243 23.8227 51.9983 25.2391 51.9225C27.168 51.8183 29.1002 51.6024 30.9739 51.1174C34.8203 50.1219 38.2229 48.0647 40.5111 44.7298C45.2413 37.8344 45.1873 27.3244 40.1924 20.6211Z" fill="#C66658"/>
<path d="M8.76905 20.3696C7.97011 22.171 7.46456 24.2751 7.4391 26.2469C7.40354 28.971 6.94729 31.4551 5.49852 33.792C3.98509 36.2332 3.66139 39.27 4.33223 42.0306C4.77393 43.8485 5.67714 45.5389 6.97073 46.9013C8.58639 48.6029 10.6042 49.9241 12.8143 50.7351C14.0723 51.1968 15.3784 51.5283 16.7035 51.734C18.7023 52.0438 20.2424 52.0959 22.2404 51.8218C26.349 51.2578 30.8315 49.1144 33.4098 45.8078C35.9339 42.5706 36.8784 38.3376 36.9903 34.3179C37.0841 30.9324 36.4936 27.5304 35.4138 24.324C33.198 17.7417 28.5652 12.5102 20.7395 13.0365C16.9618 13.2907 13.1481 14.7297 10.5941 17.5424C9.78905 18.4291 9.20995 19.3751 8.76905 20.3696Z" fill="#FFC1B8"/>
<path d="M36.9901 34.3183C36.8767 38.3375 35.921 42.5704 33.3635 45.8076C30.7528 49.1149 26.2114 51.2578 22.0511 51.8214C20.5734 52.0222 19.343 52.0483 18 51.9268C18.298 51.8995 18.6054 51.8643 18.923 51.8214C23.0846 51.2578 27.6248 49.1149 30.2367 45.8076C32.7929 42.5704 33.7499 38.3375 33.8625 34.3183C33.9587 30.9324 33.3602 27.5313 32.2665 24.3237C30.2809 18.5007 26.3796 13.7351 20.0159 13.0785C20.1874 13.0617 20.3581 13.0481 20.5296 13.0365C28.4565 12.5106 33.149 17.7419 35.3933 24.3237C36.487 27.5313 37.0855 30.9328 36.9901 34.3183Z" fill="#FFB3A8"/>
<path d="M11.4824 21.6179C10.8866 22.8429 10.4609 24.1764 10.2344 25.5633C9.72429 28.6865 10.0549 30.9146 8.37955 33.7212C5.22769 39.0027 7.78085 45.3032 12.9565 47.7373C16.67 49.4841 20.8993 49.2323 24.6886 48.1097C34.1605 45.304 35.4077 34.4073 32.8292 25.5192C31.1054 19.5782 27.0205 14.868 20.9548 15.0028C16.7638 15.096 13.3173 17.8439 11.4824 21.6179Z" fill="#FFA295"/>
<path d="M24.5293 48.1098C22.1147 48.8122 19.5262 49.1742 17 48.9174C18.4076 48.7851 19.8027 48.5001 21.1434 48.1098C30.7768 45.3037 32.0461 34.4069 29.4232 25.5189C27.8662 20.2371 24.4085 15.9294 19.3241 15.1335C19.7827 15.0569 20.253 15.0132 20.7329 15.0028C26.9015 14.8684 31.0569 19.5781 32.809 25.5189C35.432 34.4069 34.1631 45.3037 24.5293 48.1098Z" fill="#FA9385"/>
<path d="M24.1521 32.5998C26.7984 35.6937 31.1513 33.2315 30.996 29.3836C30.9033 27.0818 29.6717 24.3629 28.3668 22.5339C27.3124 21.0553 25.9449 19.7712 24.3359 19.0008C22.7102 18.223 20.439 17.3748 18.8199 18.6684C17.7254 19.5431 17.8539 21.1073 18.4652 22.2506C19.1754 23.5785 20.7092 23.8102 21.5437 25.0211C23.088 27.2619 22.3793 30.5273 24.1521 32.5998Z" fill="#FFC1B8"/>
<path d="M28.4975 34C29.0116 33.2204 29.3127 32.2466 29.2694 31.166C29.1757 28.8113 27.9307 26.0305 26.6116 24.1598C25.5452 22.6471 24.1632 21.3342 22.5359 20.5462C21.2188 19.9081 19.4801 19.2236 18 19.6611C18.1291 19.291 18.3511 18.9552 18.6869 18.6839C20.3232 17.3601 22.6197 18.2284 24.2624 19.0243C25.8897 19.8119 27.2717 21.1252 28.3381 22.6367C29.6575 24.5086 30.9022 27.2882 30.9959 29.6428C31.0762 31.6571 29.963 33.3 28.4975 34Z" fill="#FFB3A8"/>
<path d="M12.7874 29.1862C12.6537 30.3965 12.1738 31.5483 11.6981 32.6816C11.0474 34.2309 10.3905 35.7968 10.121 37.4417C9.8516 39.0866 10.0014 40.8428 10.8823 42.2529C11.9506 43.9625 13.9984 44.8952 16.0375 44.9944C17.8378 45.0822 20.1266 44.1314 19.9945 42.0519C19.8687 40.0663 17.7771 39.0281 17.2333 37.2213C16.6383 35.2456 16.8537 33.4964 17.1805 31.4795C17.5609 29.1293 19.0323 26.5484 16.7671 24.6073C15.8275 23.8024 14.0277 23.713 13.2821 24.8566C12.4511 26.1311 12.9429 27.7769 12.7874 29.1862Z" fill="#FFC1B8"/>
<path d="M26.7718 37.2966C26.1184 38.1623 25.6969 39.1599 25.0514 40.0231C24.4051 40.888 23.3913 41.355 22.6163 42.1214C21.1155 43.6044 22.5934 45.0703 24.5057 44.9974C28.1593 44.8576 31.1341 41.8857 30.9953 38.4559C30.8908 35.8647 28.4478 35.0781 26.7718 37.2966Z" fill="#FFC1B8"/>
<path d="M25.1744 44.9974C24.1443 45.0412 23.2549 44.53 23 43.7927C23.2356 43.8478 23.488 43.8734 23.75 43.8616C27.0281 43.7226 29.6968 40.7482 29.5719 37.3161C29.5538 36.8042 29.4533 36.362 29.2914 36C30.2002 36.0738 30.9423 36.9659 30.9959 38.4523C31.1196 41.884 28.4524 44.8575 25.1744 44.9974Z" fill="#FFB3A8"/>
<path d="M17.3474 28.1486C17.3968 29.1585 17.5605 29.9569 17.0903 30.9C16.6874 31.7076 16.0853 32.4125 15.627 33.1916C14.8372 34.5338 14.8199 36.3263 15.427 37.7317C15.8367 38.6799 16.7216 39.6281 17.8044 39.9126C19.3049 40.3061 20.6308 39.2694 21.9592 38.8138C23.1545 38.4041 24.1768 38.5602 25.2777 39.1584C25.9102 39.5021 26.7279 39.9948 27.5384 39.7668C28.5151 39.4918 29.392 38.4195 29.6871 37.5555C30.9517 33.8542 28.1582 29.5808 25.3399 27.1601C23.9096 25.9317 22.412 24.7914 20.4109 25.0325C18.5375 25.2581 17.2535 26.2391 17.3474 28.1486Z" fill="#FF8978"/>
<path d="M29.6931 37.7038C29.4043 38.5786 28.5449 39.6636 27.588 39.941C27.3224 40.0182 27.0572 40.0138 26.7978 39.9614C26.9926 39.6716 27.143 39.3702 27.2354 39.0903C28.4744 35.3455 25.7362 31.0206 22.9747 28.5715C21.5728 27.329 20.1051 26.1748 18.143 26.4183C18.0949 26.4239 18.0468 26.4307 18 26.4375C18.5014 25.6311 19.4346 25.1782 20.6019 25.033C22.5636 24.7884 24.0301 25.9425 25.432 27.1851C28.1951 29.6354 30.933 33.9591 29.6931 37.7038Z" fill="#F97866"/>
<path d="M25 31.5C25 32.8807 24.1045 34 22.9998 34C21.8952 34 21 32.8807 21 31.5C21 30.1193 21.8952 29 22.9998 29C24.1045 29 25 30.1193 25 31.5Z" fill="#FFC1B8"/>
<path d="M23.4529 33.964C22.918 34.0867 22.3976 33.8891 22 33.473C22.1017 33.473 22.2057 33.4609 22.3095 33.4372C23.3215 33.2052 24.0024 31.9144 23.8302 30.5535C23.7486 29.9118 23.492 29.3687 23.1383 29C24.03 28.9963 24.8187 29.8588 24.9733 31.0803C25.1458 32.4412 24.4647 33.7324 23.4529 33.964Z" fill="#FFB3A8"/>
</g>
<defs>
<linearGradient id="paint0_linear" x1="25" y1="-1.90735e-06" x2="25" y2="50" gradientUnits="userSpaceOnUse">
<stop stop-color="white"/>
<stop offset="1" stop-color="#DFFFD3"/>
</linearGradient>
</defs>
</svg>
