<svg width="132" height="132" viewBox="0 0 132 132" fill="none" xmlns="http://www.w3.org/2000/svg">
<path d="M0 4C0 1.79086 1.79086 0 4 0H128C130.209 0 132 1.79086 132 4V132H0V4Z" fill="#E0E0E0"/>
<path d="M46.5342 83.0483C46.5342 83.0483 65.4213 86.5346 77.4327 75.2817C89.4441 64.0289 85.7228 46.3345 85.7228 46.3345L46.5342 83.0483Z" fill="#B3B3B3"/>
<path d="M85.723 46.3345C85.723 46.3345 66.8359 42.8482 54.8245 54.1011C42.8131 65.354 46.5344 83.0483 46.5344 83.0483L85.723 46.3345Z" fill="#B2B2B2"/>
<path d="M46.5342 83.0478C46.5342 83.0478 65.7608 82.1687 74.5248 68.5356C83.2889 54.9026 75.128 38.5703 75.128 38.5703L46.5342 83.0478Z" fill="#C0C0C0"/>
<path d="M74.3485 65.9451C74.3485 67.5102 73.4198 68.5893 71.6008 68.5893L62.2805 68.6243V68.8333C62.2805 70.4684 63.8401 71.3725 65.9196 71.3725C66.9967 71.3725 68.2222 71.0945 69.596 70.5024C70.6731 70.0504 71.5645 70.0854 72.3438 70.6065C73.123 71.1285 73.5319 71.8235 73.5319 72.6936C73.5319 73.6677 72.9373 74.4678 71.7492 75.1288C70.3006 75.9289 68.2585 76.3459 65.6965 76.3459C63.1719 76.3459 61.0551 75.6498 59.3471 74.2937C57.6764 72.9026 56.7104 71.1275 56.4873 69.0063C56.3389 67.2672 56.3389 65.7011 56.4873 64.31C56.7104 62.0488 57.638 60.2047 59.2723 58.8485C60.943 57.4914 63.0224 56.7964 65.5108 56.7964C68.1475 56.7964 70.2643 57.5614 71.8976 59.0576C73.5308 60.5537 74.3485 62.6058 74.3485 65.145V65.9451V65.9451ZM68.4816 64.901C68.741 64.901 68.8531 64.762 68.8531 64.484C68.8904 62.6748 67.665 61.4227 65.6228 61.4227C63.395 61.4227 62.2805 62.7798 62.2805 64.902H68.4816V64.901Z" fill="white"/>
</svg>
